gateware/simple_ports_to_wb.vcd
$comment Generated by Amaranth $end
$date 2022-11-10 14:24:23.491530 $end
$timescale 1 ps $end
$scope module bench $end
$scope module top $end
$var wire 1 ! clk $end
$var wire 1 " rst $end
$var wire 1 # op_rdy_out $end
$var wire 32 $ data_out $end
$var wire 32 % bus__adr $end
$var wire 1 & bus__we $end
$var wire 4 ' bus__sel $end
$var wire 1 ( bus__cyc $end
$var wire 1 ) bus__stb $end
$var string 1 * fsm_state $end
$var wire 32 + bus__dat_w $end
$var wire 1 , rd_strb_in $end
$var wire 1 - wr_strb_in $end
$var wire 32 . address_in $end
$var wire 4 / sel_in $end
$var wire 32 0 data_in $end
$var wire 1 1 bus__ack $end
$var wire 32 2 bus__dat_r $end
$upscope $end
$upscope $end
$enddefinitions $end
#0
$dumpvars
0!
0"
0#
b0 $
b0 %
0&
b0 '
0(
0)
sIDLE/0 *
b0 +
0,
0-
b0 .
b0 /
b0 0
01
b0 2
$end
#8333
1!
#16666
0!
#24999
1!
b10000000000000000000000000000 .
1-
b1000000010001000000010000 0
b1111 /
#33332
0!
#41665
1!
sWRITE/2 *
b1111 '
b10000000000000000000000000000 %
b1000000010001000000010000 +
1(
0-
1&
1)
#49998
0!
#58331
1!
11
#66664
0!
#74997
1!
sIDLE/0 *
b0 '
0&
b0 %
b0 +
0(
01
1#
0)
#83330
0!
#91663
1!
1,
b10000000000000000000000000001 .
0#
#99996
0!
#108329
1!
0,
1(
sREAD/1 *
b1111 '
1)
b10000000000000000000000000001 %
#116662
0!
#124995
1!
11
b10001000100010000000000000000 2
#133328
0!
#141661
1!
sIDLE/0 *
b0 '
b10001000100010000000000000000 $
b0 %
b0 2
0(
01
1#
0)
#149994
0!
#158327
1!
0#
b0 $
